<?xml version="1.0" encoding="iso-8859-1"?>
<!-- Generator: Adobe Illustrator 19.0.0, SVG Export Plug-In . SVG Version: 6.00 Build 0)  -->
<svg version="1.1" id="Capa_1" xmlns="http://www.w3.org/2000/svg" xmlns:xlink="http://www.w3.org/1999/xlink" x="0px" y="0px"
	 viewBox="0 0 512 512" style="enable-background:new 0 0 512 512;" xml:space="preserve">
<g>
	<g>
		<path d="M478.535,33.829H33.464C15.012,33.829,0,48.841,0,67.293v377.414c0,18.452,15.012,33.464,33.464,33.464h445.071
			c18.452,0,33.465-15.012,33.465-33.464V67.293C512,48.841,496.987,33.829,478.535,33.829z M492,444.706
			c0,7.424-6.04,13.464-13.465,13.464H33.464C26.04,458.17,20,452.13,20,444.706v-43.401h472V444.706z M289.726,310.52h-67.454
			c-5.523,0-10,4.477-10,10v60.786h-38.173v-78.941l81.9-80.311l81.9,80.311v78.941h-38.174V320.52
			C299.726,314.997,295.249,310.52,289.726,310.52z M279.726,330.52v50.785h-47.454V330.52H279.726z M263,200.907
			c-0.243-0.238-0.495-0.462-0.755-0.67c-0.412-0.33-0.848-0.612-1.295-0.867c-3.509-2.004-7.966-1.723-11.197,0.867
			c-0.26,0.209-0.512,0.432-0.755,0.67l-101.692,99.718l-11.31-14.315L256,169.898l120.004,116.413l-0.001-0.001l-11.31,14.315
			L263,200.907z M331.287,215.068V197.16h14.141v31.625L331.287,215.068z M357.9,321.976l0.738,0.724c1.875,1.839,4.391,2.86,7,2.86
			c0.211,0,0.422-0.007,0.634-0.02c2.832-0.18,5.454-1.554,7.214-3.781l23.81-30.137c3.181-4.025,2.799-9.805-0.884-13.377
			l-30.984-30.057V187.16c0-5.523-4.478-10-10-10h-34.141c-5.522,0-10,4.477-10,10v8.506l-48.324-46.878
			c-3.879-3.763-10.047-3.763-13.926,0l-133.45,129.456c-3.682,3.572-4.064,9.352-0.884,13.377l23.81,30.137
			c1.759,2.227,4.382,3.601,7.214,3.781c2.833,0.178,5.608-0.853,7.634-2.84l0.738-0.723v59.329H60.032V93.861h391.935v287.444
			H357.9V321.976z M492,381.306h-20.032V83.861c0-5.523-4.478-10-10-10H50.032c-5.523,0-10,4.477-10,10v297.444H20V67.293
			c0-7.424,6.04-13.464,13.464-13.464h445.071c7.425,0,13.465,6.04,13.465,13.464V381.306z"/>
	</g>
</g>
<g>
	<g>
		<path d="M368.219,428.15c-0.129-0.64-0.32-1.27-0.57-1.87c-0.25-0.6-0.56-1.18-0.92-1.73c-0.37-0.55-0.79-1.06-1.25-1.52
			c-0.46-0.46-0.97-0.88-1.52-1.24c-0.54-0.36-1.12-0.67-1.72-0.92c-0.61-0.25-1.24-0.44-1.87-0.57c-1.29-0.26-2.62-0.26-3.91,0
			c-0.641,0.13-1.271,0.32-1.87,0.57c-0.61,0.25-1.19,0.56-1.73,0.92c-0.55,0.36-1.06,0.78-1.52,1.24
			c-0.46,0.46-0.88,0.97-1.24,1.52c-0.359,0.54-0.67,1.13-0.92,1.73c-0.25,0.6-0.439,1.23-0.57,1.87
			c-0.13,0.64-0.199,1.3-0.199,1.95c0,0.66,0.069,1.31,0.199,1.96c0.131,0.64,0.32,1.27,0.57,1.87c0.25,0.6,0.561,1.18,0.92,1.72
			c0.36,0.55,0.78,1.06,1.24,1.52c0.46,0.47,0.97,0.88,1.52,1.25c0.54,0.36,1.12,0.67,1.73,0.92c0.6,0.25,1.229,0.44,1.87,0.57
			c0.64,0.13,1.3,0.19,1.95,0.19c0.649,0,1.31-0.06,1.96-0.19c0.63-0.13,1.26-0.32,1.87-0.57c0.6-0.25,1.18-0.56,1.72-0.92
			c0.55-0.37,1.06-0.78,1.52-1.25c0.46-0.46,0.88-0.97,1.25-1.52c0.36-0.54,0.67-1.12,0.92-1.72c0.25-0.6,0.44-1.23,0.57-1.87
			c0.13-0.65,0.19-1.3,0.19-1.96C368.409,429.45,368.348,428.79,368.219,428.15z"/>
	</g>
</g>
<g>
	<g>
		<path d="M320.379,420.104H153.588c-5.523,0-10,4.477-10,10s4.477,10,10,10H320.38c5.522,0,10-4.477,10-10
			S325.902,420.104,320.379,420.104z"/>
	</g>
</g>
<g>
	<g>
		<path d="M187.58,112.81c-0.131-0.631-0.33-1.26-0.58-1.87c-0.25-0.6-0.56-1.18-0.92-1.72c-0.36-0.55-0.78-1.06-1.24-1.52
			c-0.46-0.46-0.97-0.88-1.52-1.25c-0.54-0.36-1.12-0.67-1.73-0.92c-0.6-0.25-1.23-0.44-1.87-0.57c-1.28-0.26-2.61-0.26-3.9,0
			c-0.64,0.13-1.27,0.32-1.87,0.57c-0.61,0.25-1.19,0.56-1.73,0.92c-0.55,0.37-1.06,0.79-1.52,1.25c-0.46,0.46-0.88,0.97-1.24,1.52
			c-0.36,0.54-0.67,1.12-0.92,1.72c-0.25,0.61-0.45,1.23-0.57,1.87c-0.13,0.65-0.2,1.31-0.2,1.96c0,0.65,0.07,1.31,0.2,1.95
			c0.12,0.64,0.32,1.27,0.57,1.87c0.25,0.61,0.56,1.19,0.92,1.73c0.36,0.55,0.78,1.06,1.24,1.52c0.46,0.46,0.97,0.88,1.52,1.24
			c0.54,0.36,1.12,0.67,1.73,0.92c0.6,0.25,1.23,0.44,1.87,0.57s1.3,0.2,1.95,0.2c0.65,0,1.31-0.07,1.95-0.2
			c0.64-0.13,1.27-0.32,1.87-0.57c0.61-0.25,1.19-0.56,1.73-0.92c0.55-0.36,1.06-0.78,1.52-1.24c0.46-0.46,0.88-0.97,1.24-1.52
			c0.36-0.54,0.67-1.12,0.92-1.73c0.25-0.6,0.45-1.23,0.58-1.87c0.13-0.64,0.19-1.3,0.19-1.95
			C187.77,114.12,187.71,113.46,187.58,112.81z"/>
	</g>
</g>
<g>
	<g>
		<path d="M334.229,104.767H215.801c-5.523,0-10,4.477-10,10c0,5.523,4.477,10,10,10h118.428c5.522,0,10-4.477,10-10
			C344.229,109.244,339.751,104.767,334.229,104.767z"/>
	</g>
</g>
<g>
</g>
<g>
</g>
<g>
</g>
<g>
</g>
<g>
</g>
<g>
</g>
<g>
</g>
<g>
</g>
<g>
</g>
<g>
</g>
<g>
</g>
<g>
</g>
<g>
</g>
<g>
</g>
<g>
</g>
</svg>
